Data Science @ The Strategy Unit – Coffee and Coding
…
What is the icb_boundaries data?

icb_boundaries |>
  select(ICB23CD, ICB23NM)

Simple feature collection with 42 features and 2 fields
Geometry type: MULTIPOLYGON
Dimension:     XY
Bounding box:  xmin: -6.418667 ymin: 49.86479 xmax: 1.763706 ymax: 55.81112
Geodetic CRS:  WGS 84
# A tibble: 42 × 3
   ICB23CD   ICB23NM                                                    geometry
   <chr>     <chr>                                            <MULTIPOLYGON [°]>
 1 E54000008 NHS Cheshire and Merseyside Integrated C… (((-3.083264 53.2559, -3…
 2 E54000010 NHS Staffordshire and Stoke-on-Trent Int… (((-1.950489 53.21188, -…
 3 E54000011 NHS Shropshire, Telford and Wrekin Integ… (((-2.380794 52.99841, -…
 4 E54000013 NHS Lincolnshire Integrated Care Board    (((0.2687853 52.81584, 0…
 5 E54000015 NHS Leicester, Leicestershire and Rutlan… (((-0.7875237 52.97762, …
 6 E54000018 NHS Coventry and Warwickshire Integrated… (((-1.577608 52.67858, -…
 7 E54000019 NHS Herefordshire and Worcestershire Int… (((-2.272042 52.43972, -…
 8 E54000022 NHS Norfolk and Waveney Integrated Care … (((1.666741 52.31366, 1.…
 9 E54000023 NHS Suffolk and North East Essex Integra… (((0.8997023 51.7732, 0.…
10 E54000024 NHS Bedfordshire, Luton and Milton Keyne… (((-0.4577115 52.32009, …
# ℹ 32 more rows
…
# also works
trusts_in_iso <- trusts |>
  st_filter(
    summarise(iso),
    .predicate = st_within
  )

trusts_in_iso

Simple feature collection with 31 features and 3 fields
Geometry type: POINT
Dimension:     XY
Bounding box:  xmin: -2.793386 ymin: 52.19205 xmax: -1.10302 ymax: 53.01015
Geodetic CRS:  WGS 84
# A tibble: 31 × 4
   name                               org_id post_code             geometry
 * <chr>                              <chr>  <chr>              <POINT [°]>
 1 BIRMINGHAM AND SOLIHULL MENTAL HE… RXT    B1 3RB    (-1.917663 52.48416)
 2 BIRMINGHAM COMMUNITY HEALTHCARE N… RYW    B7 4BN    (-1.886282 52.48754)
 3 BIRMINGHAM WOMEN'S AND CHILDREN'S… RQ3    B4 6NH     (-1.894241 52.4849)
 4 BIRMINGHAM WOMEN'S NHS FOUNDATION… RLU    B15 2TG   (-1.942861 52.45325)
 5 BURTON HOSPITALS NHS FOUNDATION T… RJF    DE13 0RB  (-1.656667 52.81774)
 6 COVENTRY AND WARWICKSHIRE PARTNER… RYG    CV6 6NY    (-1.48692 52.45659)
 7 DERBYSHIRE HEALTHCARE NHS FOUNDAT… RXM    DE22 3LZ  (-1.512896 52.91831)
 8 DUDLEY INTEGRATED HEALTH AND CARE… RYK    DY5 1RU    (-2.11786 52.48176)
 9 GEORGE ELIOT HOSPITAL NHS TRUST    RLT    CV10 7DJ   (-1.47844 52.51258)
10 HEART OF ENGLAND NHS FOUNDATION T… RR1    B9 5ST     (-1.828759 52.4781)
# ℹ 21 more rows
…
